…
knitr::opts_chunk$set(comment = NA, message = FALSE, warning = FALSE, echo = TRUE)
```

# Problem 1

## 1-1) Description of the raw data

``` r
homicide_raw =
  read_csv("homicide_data/homicide-data.csv")
homicide_raw
```

    # A tibble: 52,179 x 12
       uid   reported_date victim_last victim_first victim_race victim_age
       <chr>         <dbl> <chr>       <chr>        <chr>       <chr>     
     1 Alb-~      20100504 GARCIA      JUAN         Hispanic    78        
     2 Alb-~      20100216 MONTOYA     CAMERON      Hispanic    17        
     3 Alb-~      20100601 SATTERFIELD VIVIANA      White       15        
     4 Alb-~      20100101 MENDIOLA    CARLOS       Hispanic    32        
     5 Alb-~      20100102 MULA        VIVIAN       White       72        
     6 Alb-~      20100126 BOOK        GERALDINE    White       91        
     7 Alb-~      20100127 MALDONADO   DAVID        Hispanic    52        
     8 Alb-~      20100127 MALDONADO   CONNIE       Hispanic    52        
     9 Alb-~      20100130 MARTIN-LEY~ GUSTAVO      White       56        
    10 Alb-~      20100210 HERRERA     ISRAEL       Hispanic    43        
    # ... with 52,169 more rows, and 6 more variables: victim_sex <chr>,
    #   city <chr>, state <chr>, lat <dbl>, lon <dbl>, disposition <chr>
…
aggregate_df = 
  homicide_df %>% 
    group_by(city_state) %>% 
    summarize(
      hom_total = n(),
      hom_unsolved = sum(resolved == "unsolved")
      )

aggregate_df
```

    # A tibble: 50 x 3
       city_state     hom_total hom_unsolved
       <chr>              <int>        <int>
     1 Albuquerque_NM       378          146
     2 Atlanta_GA           973          373
     3 Baltimore_MD        2827         1825
     4 Baton Rouge_LA       424          196
     5 Birmingham_AL        800          347
     6 Boston_MA            614          310
     7 Buffalo_NY           521          319
     8 Charlotte_NC         687          206
     9 Chicago_IL          5535         4073
    10 Cincinnati_OH        694          309
    # ... with 40 more rows
…
